Setting up a Freesurfer LMM through R - Dr. Mowinckel's
…
cars <- as_tibble(mtcars) |> 
  mutate(
    cyl = as.factor(cyl),  # make cyl factor,
    gear = as.factor(gear),  # make gear factor
    carb = as.factor(carb),  # make carb factor
  )
cars

## # A tibble: 32 × 11
##      mpg cyl    disp    hp  drat    wt  qsec    vs    am gear  carb 
##    <dbl> <fct> <dbl> <dbl> <dbl> <dbl> <dbl> <dbl> <dbl> <fct> <fct>
##  1  21   6      160    110  3.9   2.62  16.5     0     1 4     4    
##  2  21   6      160    110  3.9   2.88  17.0     0     1 4     4    
##  3  22.8 4      108     93  3.85  2.32  18.6     1     1 4     1    
##  4  21.4 6      258    110  3.08  3.22  19.4     1     0 3     1    
##  5  18.7 8      360    175  3.15  3.44  17.0     0     0 3     2    
##  6  18.1 6      225    105  2.76  3.46  20.2     1     0 3     1    
##  7  14.3 8      360    245  3.21  3.57  15.8     0     0 3     4    
##  8  24.4 4      147.    62  3.69  3.19  20       1     0 4     2    
##  9  22.8 4      141.    95  3.92  3.15  22.9     1     0 4     2    
## 10  19.2 6      168.   123  3.92  3.44  18.3     1     0 4     4    
## # ℹ 22 more rows
…
cars_std <- cars |>
  #transmute manipulates variables, and only returns what has been manipulated
  transmute(
    mpg  = mpg,
    cyl  = cyl,
    cyl4 = ifelse(cyl == 4, 1, 0),
    cyl6 = ifelse(cyl == 6, 1, 0),
    cyl8 = ifelse(cyl == 8, 1, 0),
    hp   = hp,
    hpz  = scale(hp, center = TRUE, scale = TRUE)
  )
cars_std

## # A tibble: 32 × 7
##      mpg cyl    cyl4  cyl6  cyl8    hp hpz[,1]
##    <dbl> <fct> <dbl> <dbl> <dbl> <dbl>   <dbl>
##  1  21   6         0     1     0   110  -0.535
##  2  21   6         0     1     0   110  -0.535
##  3  22.8 4         1     0     0    93  -0.783
##  4  21.4 6         0     1     0   110  -0.535
##  5  18.7 8         0     0     1   175   0.413
##  6  18.1 6         0     1     0   105  -0.608
##  7  14.3 8         0     0     1   245   1.43 
##  8  24.4 4         1     0     0    62  -1.24 
##  9  22.8 4         1     0     0    95  -0.754
## 10  19.2 6         0     1     0   123  -0.345
## # ℹ 22 more rows
…
Removing the intercept

Getting rid of the intercept is, thankfully, not very difficult.
By default, all models in R have an intercept, because the models truly expand to mpg ~ 1 + cyl + hp, where + 1 is the indication to create the intercept.
If we want to remove it, we need to alter the sign of that 1 to negative: mpg ~ -1 + cyl + hp.
This means that there will be no intercept, and the model matrix will change.

model_matrix <- model.matrix(mpg ~ -1 + cyl + hp, data = cars) |> 
  as_tibble()
model_matrix

## # A tibble: 32 × 4
##     cyl4  cyl6  cyl8    hp
##    <dbl> <dbl> <dbl> <dbl>
##  1     0     1     0   110
##  2     0     1     0   110
##  3     1     0     0    93
##  4     0     1     0   110
##  5     0     0     1   175
##  6     0     1     0   105
##  7     0     0     1   245
##  8     1     0     0    62
##  9     1     0     0    95
## 10     0     1     0   123
## # ℹ 22 more rows
Now all the categorical levels has their own binary column.

Standardising the continuous variables

While strictly speaking not necessary, standardising the continuous variables
is going to make your model run a little more efficiently.
When talking about running a model along 100k vertices,
every bit of help in making it more efficient is welcome.

model_matrix |> 
  mutate(
    hpz = scale(hp)
  )

## # A tibble: 32 × 5
##     cyl4  cyl6  cyl8    hp hpz[,1]
##    <dbl> <dbl> <dbl> <dbl>   <dbl>
##  1     0     1     0   110  -0.535
##  2     0     1     0   110  -0.535
##  3     1     0     0    93  -0.783
##  4     0     1     0   110  -0.535
##  5     0     0     1   175   0.413
##  6     0     1     0   105  -0.608
##  7     0     0     1   245   1.43 
##  8     1     0     0    62  -1.24 
##  9     1     0     0    95  -0.754
## 10     0     1     0   123  -0.345
## # ℹ 22 more rows
…
## Error in scale_vec(matrix(1:20)): is.null(dim(x)) is not TRUE

See how its erroring when I try to give in a matrix?
That’s good, so we know we are inputing and returning the right thing.
If I put this in a package, I’d also make a better error message, but for now, this is good enough.

Now we can make a better model matrix.

model_matrix <- model_matrix |> 
  mutate(
    hpz = scale_vec(hp)
  )
model_matrix

## # A tibble: 32 × 5
##     cyl4  cyl6  cyl8    hp    hpz
##    <dbl> <dbl> <dbl> <dbl>  <dbl>
##  1     0     1     0   110 -0.535
##  2     0     1     0   110 -0.535
##  3     1     0     0    93 -0.783
##  4     0     1     0   110 -0.535
##  5     0     0     1   175  0.413
##  6     0     1     0   105 -0.608
##  7     0     0     1   245  1.43 
##  8     1     0     0    62 -1.24 
##  9     1     0     0    95 -0.754
## 10     0     1     0   123 -0.345
## # ℹ 22 more rows

Adding the dependent variable

Lastly, we also need to add the dependent variable to the model matrix.
The model matrix does not include this, as it’s not part of the
explanatory part, it’s what we are trying to explain.
So we need to add it in.
Thankfully, since the model matrix will always return the rows
in the exact same order as the data, we can mutate it in.

model_matrix <- model_matrix |> 
  mutate(mpg = cars$mpg)
model_matrix

## # A tibble: 32 × 6
##     cyl4  cyl6  cyl8    hp    hpz   mpg
##    <dbl> <dbl> <dbl> <dbl>  <dbl> <dbl>
##  1     0     1     0   110 -0.535  21  
##  2     0     1     0   110 -0.535  21  
##  3     1     0     0    93 -0.783  22.8
##  4     0     1     0   110 -0.535  21.4
##  5     0     0     1   175  0.413  18.7
##  6     0     1     0   105 -0.608  18.1
##  7     0     0     1   245  1.43   14.3
##  8     1     0     0    62 -1.24   24.4
##  9     1     0     0    95 -0.754  22.8
## 10     0     1     0   123 -0.345  19.2
## # ℹ 22 more rows
…
Lets use it first outside our function, to see.

cars |> 
  transmute(
    across( # across several columns
      # that are numeric
      .cols  = where(is.numeric), 
      # and apply the scale_vec function
      .fns   = scale_vec,
      # suffix orig col name with z
      .names = "{col}z"
    ))

## # A tibble: 32 × 8
##      mpgz   dispz    hpz  dratz      wtz  qsecz    vsz    amz
##     <dbl>   <dbl>  <dbl>  <dbl>    <dbl>  <dbl>  <dbl>  <dbl>
##  1  0.151 -0.571  -0.535  0.568 -0.610   -0.777 -0.868  1.19 
##  2  0.151 -0.571  -0.535  0.568 -0.350   -0.464 -0.868  1.19 
##  3  0.450 -0.990  -0.783  0.474 -0.917    0.426  1.12   1.19 
##  4  0.217  0.220  -0.535 -0.966 -0.00230  0.890  1.12  -0.814
##  5 -0.231  1.04    0.413 -0.835  0.228   -0.464 -0.868 -0.814
##  6 -0.330 -0.0462 -0.608 -1.56   0.248    1.33   1.12  -0.814
##  7 -0.961  1.04    1.43  -0.723  0.361   -1.12  -0.868 -0.814
##  8  0.715 -0.678  -1.24   0.175 -0.0278   1.20   1.12  -0.814
##  9  0.450 -0.726  -0.754  0.605 -0.0687   2.83   1.12  -0.814
## 10 -0.148 -0.509  -0.345  0.605  0.228    0.253  1.12  -0.814
## # ℹ 22 more rows
…
  # combine model matrix and scaled data
  qdec <- bind_cols(mm, dataz)
  
  return(qdec)
}

And at the end we return the qdec.
Let’s take it for a spin!

make_qdec(cars, mpg ~ cyl + hp)

## # A tibble: 32 × 6
##    `(Intercept)`  cyl6  cyl8    hp   mpgz    hpz
##            <dbl> <dbl> <dbl> <dbl>  <dbl>  <dbl>
##  1             1     1     0   110  0.151 -0.535
##  2             1     1     0   110  0.151 -0.535
##  3             1     0     0    93  0.450 -0.783
##  4             1     1     0   110  0.217 -0.535
##  5             1     0     1   175 -0.231  0.413
##  6             1     1     0   105 -0.330 -0.608
##  7             1     0     1   245 -0.961  1.43 
##  8             1     0     0    62  0.715 -1.24 
##  9             1     0     0    95  0.450 -0.754
## 10             1     1     0   123 -0.148 -0.345
## # ℹ 22 more rows

make_qdec(cars, mpg ~ -1 +  cyl + hp)

## # A tibble: 32 × 6
##     cyl4  cyl6  cyl8    hp   mpgz    hpz
##    <dbl> <dbl> <dbl> <dbl>  <dbl>  <dbl>
##  1     0     1     0   110  0.151 -0.535
##  2     0     1     0   110  0.151 -0.535
##  3     1     0     0    93  0.450 -0.783
##  4     0     1     0   110  0.217 -0.535
##  5     0     0     1   175 -0.231  0.413
##  6     0     1     0   105 -0.330 -0.608
##  7     0     0     1   245 -0.961  1.43 
##  8     1     0     0    62  0.715 -1.24 
##  9     1     0     0    95  0.450 -0.754
## 10     0     1     0   123 -0.148 -0.345
## # ℹ 22 more rows

make_qdec(cars, mpg ~ -1 +  cyl + hp + disp + gear)

## # A tibble: 32 × 10
##     cyl4  cyl6  cyl8    hp  disp gear4 gear5   mpgz    hpz   dispz
##    <dbl> <dbl> <dbl> <dbl> <dbl> <dbl> <dbl>  <dbl>  <dbl>   <dbl>
##  1     0     1     0   110  160      1     0  0.151 -0.535 -0.571 
##  2     0     1     0   110  160      1     0  0.151 -0.535 -0.571 
##  3     1     0     0    93  108      1     0  0.450 -0.783 -0.990 
##  4     0     1     0   110  258      0     0  0.217 -0.535  0.220 
##  5     0     0     1   175  360      0     0 -0.231  0.413  1.04  
##  6     0     1     0   105  225      0     0 -0.330 -0.608 -0.0462
##  7     0     0     1   245  360      0     0 -0.961  1.43   1.04  
##  8     1     0     0    62  147.     1     0  0.715 -1.24  -0.678 
##  9     1     0     0    95  141.     1     0  0.450 -0.754 -0.726 
## 10     0     1     0   123  168.     1     0 -0.148 -0.345 -0.509 
## # ℹ 22 more rows
…
  return(qdec)
}

And there we have an entire function to use for making our Freesurfer qdec files from R, using R’s built-in stats power to help us.

Plot the qdec

Some times, it’s nice to see what you have made.
I, at least, always feel I get a better idea of what I’m working
with when I have it visualised in front of me.

qdec <- make_qdec(cars, mpg ~ -1 +  cyl + hp + disp + gear)
qdec

## # A tibble: 32 × 8
##     cyl4  cyl6  cyl8 gear4 gear5   mpgz    hpz   dispz
##    <dbl> <dbl> <dbl> <dbl> <dbl>  <dbl>  <dbl>   <dbl>
##  1     0     1     0     1     0  0.151 -0.535 -0.571 
##  2     0     1     0     1     0  0.151 -0.535 -0.571 
##  3     1     0     0     1     0  0.450 -0.783 -0.990 
##  4     0     1     0     0     0  0.217 -0.535  0.220 
##  5     0     0     1     0     0 -0.231  0.413  1.04  
##  6     0     1     0     0     0 -0.330 -0.608 -0.0462
##  7     0     0     1     0     0 -0.961  1.43   1.04  
##  8     1     0     0     1     0  0.715 -1.24  -0.678 
##  9     1     0     0     1     0  0.450 -0.754 -0.726 
## 10     0     1     0     1     0 -0.148 -0.345 -0.509 
## # ℹ 22 more rows
…
