- Dr. Mowinckel’s
…
Most recent 10

## # A tibble: 45 × 3
##    what                                                              when  with 
##    <glue>                                                            <chr> <chr>
##  1 AM \textbf{Mowinckel}, T Espeseth, LT Westlye \newline \textit{N… 2012  "cit…
##  2 AM \textbf{Mowinckel}, ML Pedersen, E Eilertsen, G Biele \newlin… 2015  "cit…
##  3 S Ziegler, ML Pedersen, AM \textbf{Mowinckel}, G Biele \newline … 2016  "cit…
##  4 AM \textbf{Mowinckel}, D Alnæs, ML Pedersen, S Ziegler, M Fredri… 2017  "cit…
##  5 KB Walhovd, AM Fjell, R Westerhausen, L Nyberg, KP Ebmeier, et a… 2018  "cit…
##  6 D Vidal-Piñeiro, SH Markus, L Nyberg, AM \textbf{Mowinckel}, D S… 2018  "cit…
##  7 AM Fjell, CH Chen, D Sederevicius, MH Sneve, H Grydeland, et al.… 2019  "cit…
##  8 D Vidal-Piñeiro, MH Sneve, LH Nyberg, AM \textbf{Mowinckel}, D S… 2019  "cit…
##  9 AM Fjell, MH Sneve, D Sederevicius, Ø Sørensen, SK Krogsrud, et … 2019  "cit…
## 10 AM \textbf{Mowinckel}, D Vidal-Piñeiro \newline \textit{Visualis… 2019  "Pre…
## # ℹ 35 more rows
…
