New Year’s Wishes
…
Once they are merged, we can unnest and see that our new circles object has lots of new rows!

# Unnest the data, so that a large tibble exposed (lots of rows!)
circles %>% 
  nest_by(x, y, c) %>% 
  mutate(data = list(merge(data, transp))) %>% 
  unnest(data)

## # A tibble: 150 x 5
## # Groups:   x, y, c [15]
##        x     y c           r  size
##    <int> <int> <chr>   <dbl> <dbl>
##  1     1    10 #9a1010  1.24   1  
##  2     1    10 #9a1010  1.24   1.1
##  3     1    10 #9a1010  1.24   1.2
##  4     1    10 #9a1010  1.24   1.3
##  5     1    10 #9a1010  1.24   1.4
##  6     1    10 #9a1010  1.24   1.5
##  7     1    10 #9a1010  1.24   1.6
##  8     1    10 #9a1010  1.24   1.7
##  9     1    10 #9a1010  1.24   1.8
## 10     1    10 #9a1010  1.24   1.9
## # … with 140 more rows

Then the size column can be multiplied with the radius column, to get circles of different sizes.

# multiply r with the size to get the "true" radius.
circles <- circles %>% 
  nest_by(x, y, c) %>% 
  mutate(data = list(merge(data, transp))) %>% 
  unnest(data) %>% 
  mutate(r = r*size)
circles

## # A tibble: 150 x 5
## # Groups:   x, y, c [15]
##        x     y c           r  size
##    <int> <int> <chr>   <dbl> <dbl>
##  1     1    10 #9a1010  1.24   1  
##  2     1    10 #9a1010  1.36   1.1
##  3     1    10 #9a1010  1.48   1.2
##  4     1    10 #9a1010  1.61   1.3
##  5     1    10 #9a1010  1.73   1.4
##  6     1    10 #9a1010  1.86   1.5
##  7     1    10 #9a1010  1.98   1.6
##  8     1    10 #9a1010  2.10   1.7
##  9     1    10 #9a1010  2.23   1.8
## 10     1    10 #9a1010  2.35   1.9
## # … with 140 more rows
…
