The Linear Regression Family in R - Dr. Mowinckel’s
…
# Start with importing the SPSS data
# then recode sex to Male and Female
# and make id a factor (categorical)
# then make group a factor
eData = rio::import("experim.sav") %>% 
  mutate(
    sex = factor(sex, labels=c("Male","Female")),
    id = factor(id),
    group = factor(group)
  )

# Look at it
tibble(eData)

## # A tibble: 30 x 18
##    id    sex     age group fost1 confid1 depress1 fost2 confid2 depress2 fost3
##    <fct> <fct> <dbl> <fct> <dbl>   <dbl>    <dbl> <dbl>   <dbl>    <dbl> <dbl>
##  1 4     Male     23 2        50      15       44    48      16       44    45
##  2 10    Male     21 2        47      14       42    45      15       42    44
##  3 9     Male     25 1        44      12       40    39      18       40    36
##  4 3     Male     30 1        47      11       43    42      16       43    41
##  5 12    Male     45 2        46      16       44    45      16       45    43
##  6 11    Male     22 1        39      13       43    40      20       42    39
##  7 6     Male     22 2        32      21       37    33      22       36    32
##  8 5     Male     26 1        44      17       46    37      20       47    32
##  9 8     Male     23 2        40      22       37    40      23       37    40
## 10 13    Male     21 1        47      20       50    45      25       48    46
## # … with 20 more rows, and 7 more variables: confid3 <dbl>, depress3 <dbl>,
## #   exam <dbl>, mah_1 <dbl>, DepT1gp2 <dbl>, DepT2Gp2 <dbl>, DepT3gp2 <dbl>
…
