Advent of R Functions - Dr. Mowinckel’s
…
We have our lovely penguins data set, and I want to save one file per penguin species in the data.table.
That is, I want to split the data.frame into three data.frames each containing only the data from a single penguin species.
Then I want to save each of those to file.

First we need to split the data set.
Usually, when not on the server, I’d do some {dplyr} nest_by magic, but I cannot in this case.
So we need to deal with what we have.
Neatly, base-R has the split function, which does exactly what I want.

penguins |> 
  split(~species)

## $Adelie
## # A tibble: 152 × 8
##    species island    bill_length_mm bill_depth_mm flipper_…¹ body_…² sex    year
##    <fct>   <fct>              <dbl>         <dbl>      <int>   <int> <fct> <int>
##  1 Adelie  Torgersen           39.1          18.7        181    3750 male   2007
##  2 Adelie  Torgersen           39.5          17.4        186    3800 fema…  2007
##  3 Adelie  Torgersen           40.3          18          195    3250 fema…  2007
##  4 Adelie  Torgersen           NA            NA           NA      NA <NA>   2007
##  5 Adelie  Torgersen           36.7          19.3        193    3450 fema…  2007
##  6 Adelie  Torgersen           39.3          20.6        190    3650 male   2007
##  7 Adelie  Torgersen           38.9          17.8        181    3625 fema…  2007
##  8 Adelie  Torgersen           39.2          19.6        195    4675 male   2007
##  9 Adelie  Torgersen           34.1          18.1        193    3475 <NA>   2007
## 10 Adelie  Torgersen           42            20.2        190    4250 <NA>   2007
## # … with 142 more rows, and abbreviated variable names ¹​flipper_length_mm,
## #   ²​body_mass_g
## 
## $Chinstrap
## # A tibble: 68 × 8
##    species   island bill_length_mm bill_depth_mm flipper_l…¹ body_…² sex    year
##    <fct>     <fct>           <dbl>         <dbl>       <int>   <int> <fct> <int>
##  1 Chinstrap Dream            46.5          17.9         192    3500 fema…  2007
##  2 Chinstrap Dream            50            19.5         196    3900 male   2007
##  3 Chinstrap Dream            51.3          19.2         193    3650 male   2007
##  4 Chinstrap Dream            45.4          18.7         188    3525 fema…  2007
##  5 Chinstrap Dream            52.7          19.8         197    3725 male   2007
##  6 Chinstrap Dream            45.2          17.8         198    3950 fema…  2007
##  7 Chinstrap Dream            46.1          18.2         178    3250 fema…  2007
##  8 Chinstrap Dream            51.3          18.2         197    3750 male   2007
##  9 Chinstrap Dream            46            18.9         195    4150 fema…  2007
## 10 Chinstrap Dream            51.3          19.9         198    3700 male   2007
## # … with 58 more rows, and abbreviated variable names ¹​flipper_length_mm,
## #   ²​body_mass_g
## 
## $Gentoo
## # A tibble: 124 × 8
##    species island bill_length_mm bill_depth_mm flipper_len…¹ body_…² sex    year
##    <fct>   <fct>           <dbl>         <dbl>         <int>   <int> <fct> <int>
##  1 Gentoo  Biscoe           46.1          13.2           211    4500 fema…  2007
##  2 Gentoo  Biscoe           50            16.3           230    5700 male   2007
##  3 Gentoo  Biscoe           48.7          14.1           210    4450 fema…  2007
##  4 Gentoo  Biscoe           50            15.2           218    5700 male   2007
##  5 Gentoo  Biscoe           47.6          14.5           215    5400 male   2007
##  6 Gentoo  Biscoe           46.5          13.5           210    4550 fema…  2007
##  7 Gentoo  Biscoe           45.4          14.6           211    4800 fema…  2007
##  8 Gentoo  Biscoe           46.7          15.3           219    5200 male   2007
##  9 Gentoo  Biscoe           43.3          13.4           209    4400 fema…  2007
## 10 Gentoo  Biscoe           46.8          15.4           215    5150 male   2007
## # … with 114 more rows, and abbreviated variable names ¹​flipper_length_mm,
## #   ²​body_mass_g
…
