…


# Publications & Preprints

<img src="am_mowinckel_cv.markdown_strict_files/figure-markdown_strict/pubPlot-1.png" style="width:100.0%" />

## Most recent 10

    # A tibble: 45 × 3
       what                                                              when  with 
       <glue>                                                            <chr> <chr>
     1 AM \textbf{Mowinckel}, T Espeseth, LT Westlye \newline \textit{N… 2012  "cit…
     2 AM \textbf{Mowinckel}, ML Pedersen, E Eilertsen, G Biele \newlin… 2015  "cit…
     3 S Ziegler, ML Pedersen, AM \textbf{Mowinckel}, G Biele \newline … 2016  "cit…
     4 AM \textbf{Mowinckel}, D Alnæs, ML Pedersen, S Ziegler, M Fredri… 2017  "cit…
     5 KB Walhovd, AM Fjell, R Westerhausen, L Nyberg, KP Ebmeier, et a… 2018  "cit…
     6 D Vidal-Piñeiro, SH Markus, L Nyberg, AM \textbf{Mowinckel}, D S… 2018  "cit…
     7 AM Fjell, CH Chen, D Sederevicius, MH Sneve, H Grydeland, et al.… 2019  "cit…
     8 D Vidal-Piñeiro, MH Sneve, LH Nyberg, AM \textbf{Mowinckel}, D S… 2019  "cit…
     9 AM Fjell, MH Sneve, D Sederevicius, Ø Sørensen, SK Krogsrud, et … 2019  "cit…
    10 AM \textbf{Mowinckel}, D Vidal-Piñeiro \newline \textit{Visualis… 2019  "Pre…
    # ℹ 35 more rows

## Most cited 10

# A tibble: 45 × 3

what when with
<glue> <chr> <chr>
1 AM , T Espeseth, LT Westlye \textit{N... 2012 cite...
2 AM , D Vidal-Piñeiro \textit{Visualiz... 2020 cite...
3 AM , ML Pedersen, E Eilertsen, G Biele ... 2015 cite...
4 S Ziegler, ML Pedersen, AM , G Biele ... 2016 cite...
5 D Vidal-Pineiro, N Parker, J Shin, L French, H Grydeland, AP Jac... 2020 cite...
6 JM Roe, D Vidal-Piñeiro, Ø Sørensen, AM Brandmaier, S Düzel, et ... 2021 cite...
7 D Vidal-Pineiro, Y Wang, SK Krogsrud, IK Amlien, WFC Baaré, et a... 2021 cite...
8 AM Fjell, Ø Sørensen, IK Amlien, D Bartrés-Faz, DM Bros, N Buchm... 2020 cite...
9 KB Walhovd, AM Fjell, R Westerhausen, L Nyberg, KP Ebmeier, et a... 2018 cite...
10 AM , D Alnæs, ML Pedersen, S Ziegler, M Fredri... 2017 cite...
\# ℹ 35 more rows
