Let's Get Apply'ing - Dr. Mowinckel’s
…
## ── Attaching packages ─────────────────────────────────────── tidyverse 1.3.2 ──
## ✔ ggplot2 3.3.6      ✔ purrr   0.3.5 
## ✔ tibble  3.1.8      ✔ dplyr   1.0.10
## ✔ tidyr   1.2.1      ✔ stringr 1.4.1 
## ✔ readr   2.1.2      ✔ forcats 0.5.2 
## ── Conflicts ────────────────────────────────────────── tidyverse_conflicts() ──
## ✖ dplyr::filter() masks stats::filter()
## ✖ dplyr::lag()    masks stats::lag()

mtcars |> 
  group_by(cyl) |> 
  mutate(dm_t = mpg - mean(mpg))

## # A tibble: 32 × 6
## # Groups:   cyl [3]
##      cyl   mpg mpg_dm     dm   dm_m   dm_t
##    <dbl> <dbl>  <dbl>  <dbl>  <dbl>  <dbl>
##  1     6  21    1.26   1.26   1.26   1.26 
##  2     6  21    1.26   1.26   1.26   1.26 
##  3     4  22.8 -3.86  -3.86  -3.86  -3.86 
##  4     6  21.4  1.66   1.66   1.66   1.66 
##  5     8  18.7  3.6    3.6    3.6    3.6  
##  6     6  18.1 -1.64  -1.64  -1.64  -1.64 
##  7     8  14.3 -0.800 -0.800 -0.800 -0.800
##  8     4  24.4 -2.26  -2.26  -2.26  -2.26 
##  9     4  22.8 -3.86  -3.86  -3.86  -3.86 
## 10     6  19.2 -0.543 -0.543 -0.543 -0.543
## # … with 22 more rows
…
