…
Once they are merged, we can unnest and see that our new circles object has lots of new rows!

```r
# Unnest the data, so that a large tibble exposed (lots of rows!)
circles %>% 
  nest_by(x, y, c) %>% 
  mutate(data = list(merge(data, transp))) %>% 
  unnest(data)
```

```
## # A tibble: 150 x 5
## # Groups:   x, y, c [15]
##        x     y c           r  size
##    <int> <int> <chr>   <dbl> <dbl>
##  1     1    13 #9a1010 0.816   1  
##  2     1    13 #9a1010 0.816   1.1
##  3     1    13 #9a1010 0.816   1.2
##  4     1    13 #9a1010 0.816   1.3
##  5     1    13 #9a1010 0.816   1.4
##  6     1    13 #9a1010 0.816   1.5
##  7     1    13 #9a1010 0.816   1.6
##  8     1    13 #9a1010 0.816   1.7
##  9     1    13 #9a1010 0.816   1.8
## 10     1    13 #9a1010 0.816   1.9
## # … with 140 more rows
```

Then the `size` column can be multiplied with the `radius` column, to get circles of different sizes. 

```r
# multiply r with the size to get the "true" radius.
circles <- circles %>% 
  nest_by(x, y, c) %>% 
  mutate(data = list(merge(data, transp))) %>% 
  unnest(data) %>% 
  mutate(r = r*size)
circles
```

```
## # A tibble: 150 x 5
## # Groups:   x, y, c [15]
##        x     y c           r  size
##    <int> <int> <chr>   <dbl> <dbl>
##  1     1    13 #9a1010 0.816   1  
##  2     1    13 #9a1010 0.897   1.1
##  3     1    13 #9a1010 0.979   1.2
##  4     1    13 #9a1010 1.06    1.3
##  5     1    13 #9a1010 1.14    1.4
##  6     1    13 #9a1010 1.22    1.5
##  7     1    13 #9a1010 1.31    1.6
##  8     1    13 #9a1010 1.39    1.7
##  9     1    13 #9a1010 1.47    1.8
## 10     1    13 #9a1010 1.55    1.9
## # … with 140 more rows
```
…
