Using Freesurfer Annotation Files to Plot in R - Dr. Mowinckel’s
…
This data we will need to create brain segments per row in the data.frame returned.
Since R is more happy with hexidecimal colour codes, we can go ahead and turn RGB to hex

dk_annot$colortable <- mutate(dk_annot$colortable,
                     hex = grDevices::rgb(R, G, B, 
                                          maxColorValue = 255)
)

as_tibble(dk_annot$colortable) 

## # A tibble: 36 x 7
##    label                       R     G     B     A     code hex    
##    <chr>                   <int> <int> <int> <int>    <dbl> <chr>  
##  1 unknown                    25     5    25     0  1639705 #190519
##  2 bankssts                   25   100    40     0  2647065 #196428
##  3 caudalanteriorcingulate   125   100   160     0 10511485 #7D64A0
##  4 caudalmiddlefrontal       100    25     0     0     6500 #641900
##  5 corpuscallosum            120    70    50     0  3294840 #784632
##  6 cuneus                    220    20   100     0  6558940 #DC1464
##  7 entorhinal                220    20    10     0   660700 #DC140A
##  8 fusiform                  180   220   140     0  9231540 #B4DC8C
##  9 inferiorparietal          220    60   220     0 14433500 #DC3CDC
## 10 inferiortemporal          180    40   120     0  7874740 #B42878
## # … with 26 more rows
Next step is to convert the annotation file to what Anderson Winkler so astoutly has called data-per-vertex file, or a dpv for short.
This is technically an ascii file.
This is what we will use to combine all vertices into triangular meshes for 3d rendering.
For this I made a function called ggsegExtra::annot2dpv for simplicity.
What is does is map the labels from the annotation file, restructure the labels  so that we get a matrix with 5 columns.

# remotes::install_github("LCBC-UiO/ggsegExtra")
dpv <- ggsegExtra::annot2dpv(annot_file, "annot.dpv")

## Reading from version 2 
## colortable with 36 entries read (originally /autofs/space/amaebi_026/users/buckner_cortical_atlas/scripts/colortable_final.txt )

as_tibble(dpv)

## # A tibble: 10,242 x 5
##       V1    V2    V3    V4    V5
##    <int> <int> <int> <int> <int>
##  1     0     0     0     0    25
##  2     1     0     0     0    30
##  3     2     0     0     0    29
##  4     3     0     0     0    28
##  5     4     0     0     0    25
##  6     5     0     0     0    32
##  7     6     0     0     0    12
##  8     7     0     0     0    26
##  9     8     0     0     0     1
## 10     9     0     0     0    13
## # … with 10,232 more rows
…
dk_atlas <- ggsegExtra::aparc_2_mesh(subject = subj,
                                     hemisphere = "rh",
                                     surface = "inflated",
                                     annot = "aparc",
                                     subjects_dir = fs_subj_dir,
                                     annot_dir = file.path(fs_subj_dir, subj, "label"),
                                     output_dir = "~/Desktop/",
                                     cleanup = FALSE,
                                     verbose = FALSE )

dk_atlas

## # A tibble: 36 x 9
##    atlas surf   hemi  region       colour  mesh     label       roi   annot     
##    <chr> <chr>  <chr> <chr>        <chr>   <list>   <chr>       <chr> <chr>     
##  1 dk_3d infla… left  <NA>         <NA>    <named … lh_unknown  0001  unknown   
##  2 dk_3d infla… left  bankssts     #196428 <named … lh_bankssts 0002  bankssts  
##  3 dk_3d infla… left  caudal ante… #7D64A0 <named … lh_caudala… 0003  caudalant…
##  4 dk_3d infla… left  caudal midd… #641900 <named … lh_caudalm… 0004  caudalmid…
##  5 dk_3d infla… left  corpus call… #784632 <named … lh_corpusc… 0005  corpuscal…
##  6 dk_3d infla… left  cuneus       #DC1464 <named … lh_cuneus   0006  cuneus    
##  7 dk_3d infla… left  entorhinal   #DC140A <named … lh_entorhi… 0007  entorhinal
##  8 dk_3d infla… left  fusiform     #B4DC8C <named … lh_fusiform 0008  fusiform  
##  9 dk_3d infla… left  inferior pa… #DC3CDC <named … lh_inferio… 0009  inferiorp…
## 10 dk_3d infla… left  inferior te… #B42878 <named … lh_inferio… 0010  inferiort…
## # … with 26 more rows
…
