…
``` r
# Extract loadings (rotations)
loadings_df <- as.data.frame(pca_result$rotation) |>
  rownames_to_column(var = "tracker") |>
  separate(tracker, c("type", "category", "tracker"), sep = "_") |>
  as_tibble()

loadings_df |>
  select(tracker, PC1, PC2, PC3) |>
  arrange(desc(abs(PC1)))
```

    # A tibble: 28 × 4
       tracker            PC1      PC2      PC3
       <chr>            <dbl>    <dbl>    <dbl>
     1 Fatigue          0.343  0.0684   0.00162
     2 Crash            0.328 -0.0460  -0.0888 
     3 Stability Score -0.323  0.227   -0.0392 
     4 Nausea           0.301  0.355   -0.0505 
     5 Sleep            0.300 -0.00906  0.310  
     6 Depression       0.287  0.360   -0.0136 
     7 Palpitations     0.275 -0.0522   0.0338 
     8 Headache         0.254  0.0490   0.123  
     9 Anxiety          0.208  0.0588  -0.376  
    10 Resting HR       0.195 -0.351   -0.133  
    # ℹ 18 more rows
…
clusters_df
```

    # A tibble: 28 × 2
       cluster      tracker            
       <chr>        <chr>              
     1 Menstruation Period             
     2 Menstruation Muscle aches       
     3 Menstruation Stomach pain       
     4 Menstruation Light sensitivity  
     5 Menstruation Constipation       
     6 Exertion     Stability Score    
     7 Exertion     HR Variability     
     8 Exertion     Physically active  
     9 Exertion     Mentally demanding 
    10 Exertion     Shortness of breath
    # ℹ 18 more rows
…
    Joining with `by = join_by(tracker)`

``` r
sankey_df
```

    # A tibble: 75 × 5
       x       node         next_x  next_node        value
       <fct>   <chr>        <fct>   <chr>            <dbl>
     1 pc      PC1          tracker Sleep            0.300
     2 tracker Sleep        cluster Neurological     0.300
     3 cluster Neurological <NA>    <NA>             0.300
     4 pc      PC3          tracker Sleep            0.310
     5 tracker Sleep        cluster Neurological     0.310
     6 cluster Neurological <NA>    <NA>             0.310
     7 pc      PC2          tracker Resting HR      -0.351
     8 tracker Resting HR   cluster Neurological    -0.351
     9 cluster Neurological <NA>    <NA>            -0.351
    10 pc      PC1          tracker Stability Score -0.323
    # ℹ 65 more rows
…
