…
We start by getting the data into wide format, which is necessary for most analyses.

``` r
visible_wide <- visible |>
  filter(category != "FunCap27") |>
  unite(type, c(type, category, tracker)) |>
  pivot_wider(
    id_cols = odate,
    names_from = type,
    values_from = value
  )
visible_wide
```

    # A tibble: 366 × 35
       odate      Sleep_Sleep_Sleep Measurement_Measurement…¹ Measurement_Measurem…²
       <date>                 <dbl>                     <dbl>                  <dbl>
     1 2025-04-24                 1                        55                     63
     2 2025-04-23                 0                        58                     63
     3 2025-04-22                 0                        59                     62
     4 2025-04-21                 0                        61                     57
     5 2025-04-20                 0                        58                     57
     6 2025-04-19                 0                        57                     60
     7 2025-04-18                 0                        54                     62
     8 2025-04-17                 0                        57                     57
     9 2025-04-16                 0                        60                     60
    10 2025-04-15                 0                        52                     65
    # ℹ 356 more rows
    # ℹ abbreviated names: ¹​`Measurement_Measurement_HR Variability`,
    #   ²​`Measurement_Measurement_Resting HR`
    # ℹ 31 more variables: `Measurement_Measurement_Stability Score` <dbl>,
    #   `Activity_Cognitive_Mentally demanding` <dbl>,
    #   `Symptoms_Pain_Stomach pain` <dbl>, Symptoms_Brain_Lightheadedness <dbl>,
    #   Symptoms_Brain_Headache <dbl>, `Symptoms_Muscles_Muscle weakness` <dbl>, …
…
