…
```r
mtcars |> 
  group_by(cyl) |> 
  mutate(dm_t = mpg - mean(mpg))
```

```
## # A tibble: 32 × 6
## # Groups:   cyl [3]
##      cyl   mpg mpg_dm     dm   dm_m   dm_t
##    <dbl> <dbl>  <dbl>  <dbl>  <dbl>  <dbl>
##  1     6  21    1.26   1.26   1.26   1.26 
##  2     6  21    1.26   1.26   1.26   1.26 
##  3     4  22.8 -3.86  -3.86  -3.86  -3.86 
##  4     6  21.4  1.66   1.66   1.66   1.66 
##  5     8  18.7  3.6    3.6    3.6    3.6  
##  6     6  18.1 -1.64  -1.64  -1.64  -1.64 
##  7     8  14.3 -0.800 -0.800 -0.800 -0.800
##  8     4  24.4 -2.26  -2.26  -2.26  -2.26 
##  9     4  22.8 -3.86  -3.86  -3.86  -3.86 
## 10     6  19.2 -0.543 -0.543 -0.543 -0.543
## # … with 22 more rows
```
…
